%YAML 1.1
%TAG !u! tag:unity3d.com,2011:
--- !u!78 &1
TagManager:
  serializedVersion: 2
  tags:
  - ProyectilJugador
  - ProyectilEnemigo
  - Atacante
  - Barrera
  layers:
  - Default
  - TransparentFX
  - Ignore Raycast
  - 
  - Water
  - UI
  - 
  - 
  - Jugador
  - Enemigos
  - ProyectilesJugador
  - ProyectilesEnemigos
  - Barreras
  - 
  - 
  - 
  - 
  - 
  - 
  - 
  - 
  - 
  - 
  - 
  - 
  - 
  - 
  - 
  - 
  - 
  - 
  - 
  m_SortingLayers:
  - name: Default
    uniqueID: 0
    locked: 0
  - name: ProyectilesEnemigos
    uniqueID: 2010469061
    locked: 0
  - name: ProyectilesJugador
    uniqueID: 3220883127
    locked: 0
  - name: Enemigos
    uniqueID: 3272295071
    locked: 0
  - name: Jugador
    uniqueID: 2959867705
    locked: 0
